{
  "name": "melange-tea-vite",
  "dependencies": {
    "npm": "^7.20.1",
    "vite": "^3.0.9",
    "melange": "melange-re/melange#43511419eedd42fba11d81698afbc07e047c5bb8",
    "@opam/dune": ">= 3.4",
    "@opam/dot-merlin-reader": "*",
    "@opam/ocaml-lsp-server": "*"
  },
  "esy": { "buildsInSource": "unsafe", "build": [] },
  "scripts": {
    "ln_melange": "ln -sfn #{melange.target_dir}/default node_modules/melange"
  },
  "installConfig": { "pnp": false }
}
